

   ---- Transcoding 'C:\Users\ASHWINDER GARCHA\Desktop\optical to analog convertor\optical digital to analog output\Project Outputs for optical digital to analog output\NC Drill\optical digital to analog output-RoundHoles.TXT' ----   Sat Jun 30 12:04:07 2018

T4   --> T1
T5   --> T2
T6   --> T3
-----------------------------------------------------------------


   ---- Transcoding 'C:\Users\ASHWINDER GARCHA\Desktop\optical to analog convertor\optical digital to analog output\Project Outputs for optical digital to analog output\NC Drill\optical digital to analog output-RectHoles.TXT' ----   Sat Jun 30 12:04:07 2018

T3   --> T4
-----------------------------------------------------------------


   ---- Transcoding 'C:\Users\ASHWINDER GARCHA\Desktop\optical to analog convertor\optical digital to analog output\Project Outputs for optical digital to analog output\NC Drill\optical digital to analog output-SlotHoles.TXT' ----   Sat Jun 30 12:04:07 2018

T1   --> T5
-----------------------------------------------------------------


   ---- Transcoding 'C:\Users\ASHWINDER GARCHA\Desktop\optical to analog convertor\optical digital to analog output\Project Outputs for optical digital to analog output\NC Drill\optical digital to analog output-SquareHoles.TXT' ----   Sat Jun 30 12:04:07 2018

T2   --> T6
-----------------------------------------------------------------
