Added Component: Designator=MH1(MH 7.4mmX 3.2mm NON PLATTED)
Add component. Clean all parameters for all variants
Added Component: Designator=MH2(MH 7.4mmX 3.2mm NON PLATTED)
Add component. Clean all parameters for all variants
Added Component: Designator=MH3(MH 7.4mmX 3.2mm NON PLATTED)
Add component. Clean all parameters for all variants
Added Component: Designator=MH4(MH 7.4mmX 3.2mm NON PLATTED)
Add component. Clean all parameters for all variants
