Change Component Designator: Old Designator=C? New Designator=C1
Change Component Designator: Old Designator=c? New Designator=c2
Change Component Designator: Old Designator=c? New Designator=c3
Change Component Designator: Old Designator=C? New Designator=C4
Change Component Designator: Old Designator=c? New Designator=c5
Change Component Designator: Old Designator=C? New Designator=C6
Change Component Designator: Old Designator=C? New Designator=C7
Change Component Designator: Old Designator=c? New Designator=c8
Change Component Designator: Old Designator=C? New Designator=C9
Change Component Designator: Old Designator=c? New Designator=c10
Change Component Designator: Old Designator=C? New Designator=C11
Change Component Designator: Old Designator=C? New Designator=C12
Change Component Designator: Old Designator=c? New Designator=c13
Change Component Designator: Old Designator=C? New Designator=C14
Change Component Designator: Old Designator=d? New Designator=d1
Change Component Designator: Old Designator=D? New Designator=D2
Change Component Designator: Old Designator=D? New Designator=D3
Change Component Designator: Old Designator=D? New Designator=D4
Change Component Designator: Old Designator=l? New Designator=l1
Change Component Designator: Old Designator=R? New Designator=R1
Change Component Designator: Old Designator=R? New Designator=R2
Change Component Designator: Old Designator=R? New Designator=R3
Change Component Designator: Old Designator=R? New Designator=R4
Change Component Designator: Old Designator=R? New Designator=R5
Change Component Designator: Old Designator=R? New Designator=R6
Change Component Designator: Old Designator=R? New Designator=R7
Change Component Designator: Old Designator=R? New Designator=R8
Change Component Designator: Old Designator=R? New Designator=R9
Change Component Designator: Old Designator=R? New Designator=R10
Change Component Designator: Old Designator=U? New Designator=U1
Change Component Designator: Old Designator=u? New Designator=u2
Change Component Designator: Old Designator=u? New Designator=u3
Change Component Designator: Old Designator=U? New Designator=U4
Change Component Designator: Old Designator=x? New Designator=x1
Change Component Designator: Old Designator=x? New Designator=x2
Change Component Designator: Old Designator=x? New Designator=x3
